[
  {
    "meta": {
      "id": "1f0a89c3147f"
    },
    "data": {
      "name": "First Graph"
    }
  },
  {
    "meta": {
      "id": "2991329ce3db"
    },
    "data": {
      "name": "Second Graph"
    }
  },
  {
    "meta": {
      "id": "37a1d4f3d8f0"
    },
    "data": {
      "name": "Third Graph"
    }
  },
  {
    "meta": {
      "id": "47991e87694c"
    },
    "data": {
      "name": "Fourth Graph"
    }
  },
  {
    "meta": {
      "id": "58de4174863d"
    },
    "data": {
      "name": "Fifth Graph"
    }
  },
  {
    "meta": {
      "id": "606cf669345e"
    },
    "data": {
      "name": "Sixth Graph"
    }
  },
  {
    "meta": {
      "id": "7c93fbea2a9f"
    },
    "data": {
      "name": "Seventh Graph"
    }
  },
  {
    "meta": {
      "id": "8cc05986ac5e"
    },
    "data": {
      "name": "Eighth Graph"
    }
  },
  {
    "meta": {
      "id": "9e2797ffdbce"
    },
    "data": {
      "name": "Ninth Graph"
    }
  },
  {
    "meta": {
      "id": "aec6e3e2d4d1"
    },
    "data": {
      "name": "Tenth Graph"
    }
  },
  {
    "meta": {
      "id": "b11499fa6487"
    },
    "data": {
      "name": "Eleventh Graph"
    }
  }
]